Engine/Binaries/Win64/UnrealGame.pdb	2022-06-15T07:41:14.483Z
Engine/Binaries/ThirdParty/PhysX3/Win64/VS2015/PhysX3CommonPROFILE_x64.pdb	2022-06-15T07:40:01.948Z
Engine/Binaries/ThirdParty/PhysX3/Win64/VS2015/PhysX3CookingPROFILE_x64.pdb	2022-06-15T07:40:01.956Z
Engine/Binaries/ThirdParty/PhysX3/Win64/VS2015/PhysX3PROFILE_x64.pdb	2022-06-15T07:40:02.219Z
Engine/Binaries/ThirdParty/PhysX3/Win64/VS2015/PxFoundationPROFILE_x64.pdb	2022-06-15T07:40:02.224Z
Engine/Binaries/ThirdParty/PhysX3/Win64/VS2015/PxPvdSDKPROFILE_x64.pdb	2022-06-15T07:40:02.336Z
Engine/Content/SlateDebug/Fonts/LastResort.tps	2022-06-15T07:42:42.656Z
Engine/Content/SlateDebug/Fonts/LastResort.ttf	2022-06-15T07:42:43.709Z
Engine/Extras/GPUDumpViewer/GPUDumpViewer.html	2022-06-15T07:45:08.933Z
Engine/Extras/GPUDumpViewer/OpenGPUDumpViewer.bat	2022-06-15T07:45:08.933Z
Engine/Extras/GPUDumpViewer/OpenGPUDumpViewer.sh	2022-06-15T07:45:08.934Z
